{"hash":"6296c32fb31bc29b32e5400ed33058187fbc46e0","data":{"blogs":{"pageInfo":{"totalItems":16,"totalPages":4,"currentPage":1},"edges":[{"node":{"id":"16","title":"十六","updateTime":"2020-09-09","description":"这是描述"}},{"node":{"id":"15","title":"十五","updateTime":"2020-09-09","description":"这是描述"}},{"node":{"id":"14","title":"十四","updateTime":"2020-09-09","description":"这是描述"}},{"node":{"id":"13","title":"十三","updateTime":"2020-09-09","description":"这是描述"}},{"node":{"id":"12","title":"十二","updateTime":"2020-09-09","description":"这是描述"}}]}},"context":{}}