{"hash":"6296c32fb31bc29b32e5400ed33058187fbc46e0","data":{"blogs":{"pageInfo":{"totalItems":16,"totalPages":4,"currentPage":2},"edges":[{"node":{"id":"11","title":"十一","updateTime":"2020-09-09","description":"这是描述"}},{"node":{"id":"10","title":"十","updateTime":"2020-09-09","description":"这是描述"}},{"node":{"id":"9","title":"九","updateTime":"2020-09-09","description":"这是描述"}},{"node":{"id":"8","title":"八","updateTime":"2020-09-09","description":"这是描述"}},{"node":{"id":"7","title":"七","updateTime":"2020-09-09","description":"这是描述"}}]}},"context":{}}