{"hash":"308cd437e058ccb96e719e0f295fd6d5197a3568","data":{"blogs":{"pageInfo":{"totalItems":16,"totalPages":4,"currentPage":4},"edges":[{"node":{"id":"1","title":"一","updateTime":"2020-09-09","description":"这是描述"}}]}},"context":{}}