{"hash":"6296c32fb31bc29b32e5400ed33058187fbc46e0","data":{"blogs":{"pageInfo":{"totalItems":16,"totalPages":4,"currentPage":3},"edges":[{"node":{"id":"6","title":"六","updateTime":"2020-09-09","description":"这是描述"}},{"node":{"id":"5","title":"五","updateTime":"2020-09-09","description":"这是描述"}},{"node":{"id":"4","title":"四","updateTime":"2020-09-09","description":"这是描述"}},{"node":{"id":"3","title":"三","updateTime":"2020-09-09","description":"这是描述"}},{"node":{"id":"2","title":"二","updateTime":"2020-09-09","description":"这是描述"}}]}},"context":{}}