{"hash":"308cd437e058ccb96e719e0f295fd6d5197a3568","data":{"followers":{"pageInfo":{"totalItems":10,"totalPages":2,"currentPage":2},"edges":[{"node":{"name":"五","htmlUrl":"www.baidu.com","avatarUrl":"www.baidu.com"}},{"node":{"name":"四","htmlUrl":"www.baidu.com","avatarUrl":"www.baidu.com"}},{"node":{"name":"三","htmlUrl":"www.baidu.com","avatarUrl":"www.baidu.com"}},{"node":{"name":"二","htmlUrl":"www.baidu.com","avatarUrl":"www.baidu.com"}},{"node":{"name":"一","htmlUrl":"www.baidu.com","avatarUrl":"www.baidu.com"}}]},"following":{"pageInfo":{"totalItems":15,"totalPages":3,"currentPage":2},"edges":[{"node":{"name":"十","htmlUrl":"www.baidu.com","avatarUrl":"www.baidu.com"}},{"node":{"name":"九","htmlUrl":"www.baidu.com","avatarUrl":"www.baidu.com"}},{"node":{"name":"八","htmlUrl":"www.baidu.com","avatarUrl":"www.baidu.com"}},{"node":{"name":"七","htmlUrl":"www.baidu.com","avatarUrl":"www.baidu.com"}},{"node":{"name":"六","htmlUrl":"www.baidu.com","avatarUrl":"www.baidu.com"}}]}},"context":{}}