{"hash":"6296c32fb31bc29b32e5400ed33058187fbc46e0","data":{"followers":{"pageInfo":{"totalItems":10,"totalPages":2,"currentPage":3},"edges":[]},"following":{"pageInfo":{"totalItems":15,"totalPages":3,"currentPage":3},"edges":[{"node":{"name":"五","htmlUrl":"www.baidu.com","avatarUrl":"www.baidu.com"}},{"node":{"name":"四","htmlUrl":"www.baidu.com","avatarUrl":"www.baidu.com"}},{"node":{"name":"三","htmlUrl":"www.baidu.com","avatarUrl":"www.baidu.com"}},{"node":{"name":"二","htmlUrl":"www.baidu.com","avatarUrl":"www.baidu.com"}},{"node":{"name":"一","htmlUrl":"www.baidu.com","avatarUrl":"www.baidu.com"}}]}},"context":{}}